info face="Distant Galaxy" size=50 bold=0 italic=0 charset="" unicode=0 stretchH=100 smooth=1 aa=1 padding=1,1,1,1 spacing=-2,-2
common lineHeight=50 base=40 scaleW=512 scaleH=512 pages=1 packed=0
page id=0 file="galaxy1.png"
chars count=156
char id=10      x=0    y=0    width=0    height=0    xoffset=0    yoffset=0    xadvance=0    page=0    chnl=0 
char id=32      x=0    y=0    width=0    height=0    xoffset=-1   yoffset=39   xadvance=20   page=0    chnl=0 
char id=33      x=483  y=237  width=12   height=35   xoffset=-1   yoffset=6    xadvance=13   page=0    chnl=0 
char id=34      x=458  y=272  width=23   height=18   xoffset=-1   yoffset=6    xadvance=24   page=0    chnl=0 
char id=35      x=0    y=50   width=29   height=40   xoffset=0    yoffset=2    xadvance=29   page=0    chnl=0 
char id=36      x=87   y=0    width=26   height=47   xoffset=1    yoffset=-1   xadvance=28   page=0    chnl=0 
char id=37      x=462  y=0    width=41   height=40   xoffset=2    yoffset=2    xadvance=45   page=0    chnl=0 
char id=38      x=397  y=0    width=33   height=41   xoffset=1    yoffset=2    xadvance=33   page=0    chnl=0 
char id=39      x=481  y=272  width=12   height=18   xoffset=-1   yoffset=6    xadvance=13   page=0    chnl=0 
char id=40      x=156  y=0    width=15   height=45   xoffset=1    yoffset=1    xadvance=20   page=0    chnl=0 
char id=41      x=171  y=0    width=15   height=45   xoffset=1    yoffset=1    xadvance=20   page=0    chnl=0 
char id=42      x=117  y=272  width=35   height=35   xoffset=-1   yoffset=6    xadvance=36   page=0    chnl=0 
char id=43      x=358  y=272  width=26   height=26   xoffset=2    yoffset=9    xadvance=30   page=0    chnl=0 
char id=44      x=446  y=272  width=12   height=19   xoffset=-1   yoffset=28   xadvance=13   page=0    chnl=0 
char id=45      x=89   y=307  width=17   height=7    xoffset=1    yoffset=20   xadvance=22   page=0    chnl=0 
char id=46      x=26   y=307  width=12   height=13   xoffset=-1   yoffset=28   xadvance=13   page=0    chnl=0 
char id=47      x=430  y=0    width=16   height=40   xoffset=-1   yoffset=2    xadvance=14   page=0    chnl=0 
char id=48      x=60   y=272  width=30   height=35   xoffset=-1   yoffset=6    xadvance=31   page=0    chnl=0 
char id=49      x=288  y=237  width=15   height=35   xoffset=-1   yoffset=6    xadvance=16   page=0    chnl=0 
char id=50      x=303  y=237  width=30   height=35   xoffset=-1   yoffset=6    xadvance=31   page=0    chnl=0 
char id=51      x=333  y=237  width=30   height=35   xoffset=-1   yoffset=6    xadvance=31   page=0    chnl=0 
char id=52      x=363  y=237  width=30   height=35   xoffset=-1   yoffset=6    xadvance=31   page=0    chnl=0 
char id=53      x=393  y=237  width=30   height=35   xoffset=-1   yoffset=6    xadvance=31   page=0    chnl=0 
char id=54      x=423  y=237  width=30   height=35   xoffset=-1   yoffset=6    xadvance=31   page=0    chnl=0 
char id=55      x=453  y=237  width=30   height=35   xoffset=-1   yoffset=6    xadvance=31   page=0    chnl=0 
char id=56      x=0    y=272  width=30   height=35   xoffset=-1   yoffset=6    xadvance=31   page=0    chnl=0 
char id=57      x=30   y=272  width=30   height=35   xoffset=-1   yoffset=6    xadvance=31   page=0    chnl=0 
char id=58      x=294  y=272  width=12   height=30   xoffset=-1   yoffset=11   xadvance=13   page=0    chnl=0 
char id=59      x=185  y=129  width=12   height=36   xoffset=-1   yoffset=11   xadvance=13   page=0    chnl=0 
char id=60      x=306  y=272  width=26   height=28   xoffset=2    yoffset=8    xadvance=29   page=0    chnl=0 
char id=61      x=0    y=307  width=26   height=17   xoffset=2    yoffset=14   xadvance=30   page=0    chnl=0 
char id=62      x=332  y=272  width=26   height=28   xoffset=2    yoffset=8    xadvance=29   page=0    chnl=0 
char id=63      x=90   y=272  width=27   height=35   xoffset=-1   yoffset=6    xadvance=28   page=0    chnl=0 
char id=64      x=320  y=90   width=35   height=38   xoffset=-1   yoffset=3    xadvance=36   page=0    chnl=0 
char id=65      x=197  y=129  width=41   height=35   xoffset=-4   yoffset=6    xadvance=38   page=0    chnl=0 
char id=66      x=238  y=129  width=36   height=35   xoffset=-5   yoffset=6    xadvance=33   page=0    chnl=0 
char id=67      x=274  y=129  width=30   height=35   xoffset=-1   yoffset=6    xadvance=30   page=0    chnl=0 
char id=68      x=304  y=129  width=36   height=35   xoffset=-5   yoffset=6    xadvance=33   page=0    chnl=0 
char id=69      x=340  y=129  width=36   height=35   xoffset=-4   yoffset=6    xadvance=34   page=0    chnl=0 
char id=70      x=376  y=129  width=36   height=35   xoffset=-4   yoffset=6    xadvance=34   page=0    chnl=0 
char id=71      x=412  y=129  width=32   height=35   xoffset=-1   yoffset=6    xadvance=33   page=0    chnl=0 
char id=72      x=444  y=129  width=36   height=35   xoffset=-4   yoffset=6    xadvance=34   page=0    chnl=0 
char id=73      x=480  y=129  width=16   height=35   xoffset=-5   yoffset=6    xadvance=13   page=0    chnl=0 
char id=74      x=113  y=0    width=23   height=46   xoffset=-4   yoffset=6    xadvance=21   page=0    chnl=0 
char id=75      x=0    y=167  width=37   height=35   xoffset=-5   yoffset=6    xadvance=34   page=0    chnl=0 
char id=76      x=37   y=167  width=36   height=35   xoffset=-5   yoffset=6    xadvance=33   page=0    chnl=0 
char id=77      x=73   y=167  width=41   height=35   xoffset=-5   yoffset=6    xadvance=38   page=0    chnl=0 
char id=78      x=114  y=167  width=36   height=35   xoffset=-5   yoffset=6    xadvance=33   page=0    chnl=0 
char id=79      x=150  y=167  width=35   height=35   xoffset=-1   yoffset=6    xadvance=36   page=0    chnl=0 
char id=80      x=185  y=167  width=36   height=35   xoffset=-5   yoffset=6    xadvance=33   page=0    chnl=0 
char id=81      x=221  y=167  width=37   height=35   xoffset=-1   yoffset=6    xadvance=38   page=0    chnl=0 
char id=82      x=258  y=167  width=37   height=35   xoffset=-5   yoffset=6    xadvance=34   page=0    chnl=0 
char id=83      x=295  y=167  width=36   height=35   xoffset=-4   yoffset=6    xadvance=33   page=0    chnl=0 
char id=84      x=331  y=167  width=36   height=35   xoffset=-4   yoffset=6    xadvance=34   page=0    chnl=0 
char id=85      x=367  y=167  width=36   height=35   xoffset=-5   yoffset=6    xadvance=33   page=0    chnl=0 
char id=86      x=403  y=167  width=41   height=35   xoffset=-4   yoffset=6    xadvance=38   page=0    chnl=0 
char id=87      x=444  y=167  width=56   height=35   xoffset=-4   yoffset=6    xadvance=53   page=0    chnl=0 
char id=88      x=0    y=202  width=38   height=35   xoffset=-4   yoffset=6    xadvance=35   page=0    chnl=0 
char id=89      x=38   y=202  width=39   height=35   xoffset=-5   yoffset=6    xadvance=35   page=0    chnl=0 
char id=90      x=77   y=202  width=36   height=35   xoffset=-4   yoffset=6    xadvance=34   page=0    chnl=0 
char id=91      x=63   y=0    width=12   height=49   xoffset=2    yoffset=2    xadvance=13   page=0    chnl=0 
char id=92      x=446  y=0    width=16   height=40   xoffset=-1   yoffset=2    xadvance=14   page=0    chnl=0 
char id=93      x=75   y=0    width=12   height=49   xoffset=-1   yoffset=2    xadvance=13   page=0    chnl=0 
char id=94      x=384  y=272  width=24   height=22   xoffset=0    yoffset=2    xadvance=23   page=0    chnl=0 
char id=95      x=106  y=307  width=30   height=6    xoffset=0    yoffset=45   xadvance=30   page=0    chnl=0 
char id=96      x=65   y=307  width=12   height=9    xoffset=1    yoffset=2    xadvance=17   page=0    chnl=0 
char id=97      x=113  y=202  width=37   height=35   xoffset=-1   yoffset=6    xadvance=38   page=0    chnl=0 
char id=98      x=150  y=202  width=32   height=35   xoffset=-1   yoffset=6    xadvance=33   page=0    chnl=0 
char id=99      x=274  y=129  width=30   height=35   xoffset=-1   yoffset=6    xadvance=30   page=0    chnl=0 
char id=100     x=182  y=202  width=32   height=35   xoffset=-1   yoffset=6    xadvance=33   page=0    chnl=0 
char id=101     x=214  y=202  width=32   height=35   xoffset=-1   yoffset=6    xadvance=33   page=0    chnl=0 
char id=102     x=246  y=202  width=32   height=35   xoffset=-1   yoffset=6    xadvance=33   page=0    chnl=0 
char id=103     x=412  y=129  width=32   height=35   xoffset=-1   yoffset=6    xadvance=33   page=0    chnl=0 
char id=104     x=278  y=202  width=32   height=35   xoffset=-1   yoffset=6    xadvance=33   page=0    chnl=0 
char id=105     x=496  y=129  width=12   height=35   xoffset=-1   yoffset=6    xadvance=13   page=0    chnl=0 
char id=106     x=136  y=0    width=20   height=46   xoffset=-2   yoffset=6    xadvance=20   page=0    chnl=0 
char id=107     x=310  y=202  width=33   height=35   xoffset=-2   yoffset=6    xadvance=28   page=0    chnl=0 
char id=108     x=343  y=202  width=32   height=35   xoffset=-1   yoffset=6    xadvance=33   page=0    chnl=0 
char id=109     x=375  y=202  width=37   height=35   xoffset=-1   yoffset=6    xadvance=38   page=0    chnl=0 
char id=110     x=412  y=202  width=32   height=35   xoffset=-1   yoffset=6    xadvance=33   page=0    chnl=0 
char id=111     x=150  y=167  width=35   height=35   xoffset=-1   yoffset=6    xadvance=36   page=0    chnl=0 
char id=112     x=444  y=202  width=32   height=35   xoffset=-1   yoffset=6    xadvance=33   page=0    chnl=0 
char id=113     x=221  y=167  width=37   height=35   xoffset=-1   yoffset=6    xadvance=38   page=0    chnl=0 
char id=114     x=476  y=202  width=33   height=35   xoffset=-1   yoffset=6    xadvance=34   page=0    chnl=0 
char id=115     x=0    y=237  width=32   height=35   xoffset=-1   yoffset=6    xadvance=33   page=0    chnl=0 
char id=116     x=32   y=237  width=32   height=35   xoffset=-1   yoffset=6    xadvance=33   page=0    chnl=0 
char id=117     x=64   y=237  width=32   height=35   xoffset=-1   yoffset=6    xadvance=33   page=0    chnl=0 
char id=118     x=96   y=237  width=37   height=35   xoffset=-1   yoffset=6    xadvance=38   page=0    chnl=0 
char id=119     x=133  y=237  width=52   height=35   xoffset=-1   yoffset=6    xadvance=53   page=0    chnl=0 
char id=120     x=185  y=237  width=35   height=35   xoffset=-1   yoffset=6    xadvance=35   page=0    chnl=0 
char id=121     x=220  y=237  width=36   height=35   xoffset=-2   yoffset=6    xadvance=35   page=0    chnl=0 
char id=122     x=256  y=237  width=32   height=35   xoffset=-1   yoffset=6    xadvance=33   page=0    chnl=0 
char id=123     x=0    y=0    width=16   height=50   xoffset=0    yoffset=2    xadvance=16   page=0    chnl=0 
char id=124     x=32   y=0    width=6    height=50   xoffset=4    yoffset=2    xadvance=14   page=0    chnl=0 
char id=125     x=16   y=0    width=16   height=50   xoffset=0    yoffset=2    xadvance=16   page=0    chnl=0 
char id=126     x=38   y=307  width=27   height=12   xoffset=1    yoffset=16   xadvance=29   page=0    chnl=0 
char id=145     x=355  y=90   width=30   height=38   xoffset=-1   yoffset=3    xadvance=33   page=0    chnl=0 
char id=161     x=495  y=237  width=12   height=35   xoffset=-1   yoffset=6    xadvance=13   page=0    chnl=0 
char id=167     x=38   y=0    width=25   height=50   xoffset=1    yoffset=2    xadvance=27   page=0    chnl=0 
char id=169     x=408  y=272  width=19   height=20   xoffset=-1   yoffset=22   xadvance=36   page=0    chnl=0 
char id=174     x=427  y=272  width=19   height=20   xoffset=-1   yoffset=22   xadvance=20   page=0    chnl=0 
char id=176     x=493  y=272  width=16   height=16   xoffset=2    yoffset=2    xadvance=20   page=0    chnl=0 
char id=180     x=77   y=307  width=12   height=9    xoffset=4    yoffset=2    xadvance=17   page=0    chnl=0 
char id=182     x=152  y=272  width=27   height=35   xoffset=-1   yoffset=6    xadvance=28   page=0    chnl=0 
char id=191     x=179  y=272  width=27   height=35   xoffset=-1   yoffset=6    xadvance=28   page=0    chnl=0 
char id=192     x=385  y=90   width=38   height=38   xoffset=2    yoffset=3    xadvance=44   page=0    chnl=0 
char id=193     x=423  y=90   width=38   height=38   xoffset=2    yoffset=3    xadvance=44   page=0    chnl=0 
char id=194     x=157  y=50   width=38   height=39   xoffset=2    yoffset=2    xadvance=44   page=0    chnl=0 
char id=195     x=195  y=50   width=39   height=39   xoffset=1    yoffset=2    xadvance=44   page=0    chnl=0 
char id=196     x=186  y=0    width=41   height=45   xoffset=-5   yoffset=1    xadvance=37   page=0    chnl=0 
char id=197     x=234  y=50   width=38   height=39   xoffset=1    yoffset=2    xadvance=43   page=0    chnl=0 
char id=198     x=206  y=272  width=53   height=35   xoffset=-1   yoffset=6    xadvance=54   page=0    chnl=0 
char id=199     x=227  y=0    width=30   height=45   xoffset=-1   yoffset=6    xadvance=30   page=0    chnl=0 
char id=200     x=272  y=50   width=33   height=39   xoffset=0    yoffset=2    xadvance=37   page=0    chnl=0 
char id=201     x=305  y=50   width=33   height=39   xoffset=0    yoffset=2    xadvance=37   page=0    chnl=0 
char id=202     x=338  y=50   width=33   height=39   xoffset=0    yoffset=2    xadvance=37   page=0    chnl=0 
char id=203     x=29   y=50   width=33   height=40   xoffset=0    yoffset=1    xadvance=37   page=0    chnl=0 
char id=204     x=493  y=50   width=14   height=38   xoffset=1    yoffset=3    xadvance=18   page=0    chnl=0 
char id=205     x=461  y=90   width=14   height=38   xoffset=1    yoffset=3    xadvance=18   page=0    chnl=0 
char id=206     x=371  y=50   width=14   height=39   xoffset=1    yoffset=2    xadvance=18   page=0    chnl=0 
char id=207     x=62   y=50   width=19   height=40   xoffset=1    yoffset=1    xadvance=21   page=0    chnl=0 
char id=209     x=385  y=50   width=33   height=39   xoffset=1    yoffset=2    xadvance=38   page=0    chnl=0 
char id=210     x=418  y=50   width=32   height=39   xoffset=-1   yoffset=2    xadvance=35   page=0    chnl=0 
char id=211     x=450  y=50   width=32   height=39   xoffset=-1   yoffset=2    xadvance=35   page=0    chnl=0 
char id=212     x=0    y=90   width=32   height=39   xoffset=-1   yoffset=2    xadvance=35   page=0    chnl=0 
char id=214     x=257  y=0    width=35   height=45   xoffset=-1   yoffset=1    xadvance=36   page=0    chnl=0 
char id=217     x=475  y=90   width=33   height=38   xoffset=1    yoffset=3    xadvance=38   page=0    chnl=0 
char id=218     x=0    y=129  width=33   height=38   xoffset=1    yoffset=3    xadvance=38   page=0    chnl=0 
char id=219     x=32   y=90   width=33   height=39   xoffset=1    yoffset=2    xadvance=38   page=0    chnl=0 
char id=220     x=292  y=0    width=36   height=45   xoffset=-5   yoffset=1    xadvance=33   page=0    chnl=0 
char id=223     x=81   y=50   width=27   height=40   xoffset=3    yoffset=2    xadvance=31   page=0    chnl=0 
char id=224     x=33   y=129  width=35   height=38   xoffset=-1   yoffset=3    xadvance=38   page=0    chnl=0 
char id=225     x=68   y=129  width=35   height=38   xoffset=-1   yoffset=3    xadvance=38   page=0    chnl=0 
char id=226     x=65   y=90   width=35   height=39   xoffset=-1   yoffset=2    xadvance=38   page=0    chnl=0 
char id=227     x=100  y=90   width=36   height=39   xoffset=-2   yoffset=2    xadvance=38   page=0    chnl=0 
char id=228     x=328  y=0    width=37   height=45   xoffset=-1   yoffset=1    xadvance=37   page=0    chnl=0 
char id=229     x=259  y=272  width=35   height=33   xoffset=-1   yoffset=8    xadvance=38   page=0    chnl=0 
char id=230     x=206  y=272  width=53   height=35   xoffset=-1   yoffset=6    xadvance=54   page=0    chnl=0 
char id=231     x=227  y=0    width=30   height=45   xoffset=-1   yoffset=6    xadvance=30   page=0    chnl=0 
char id=232     x=136  y=90   width=30   height=39   xoffset=-1   yoffset=2    xadvance=32   page=0    chnl=0 
char id=233     x=166  y=90   width=30   height=39   xoffset=-1   yoffset=2    xadvance=32   page=0    chnl=0 
char id=234     x=196  y=90   width=30   height=39   xoffset=-1   yoffset=2    xadvance=32   page=0    chnl=0 
char id=235     x=108  y=50   width=30   height=40   xoffset=-1   yoffset=1    xadvance=32   page=0    chnl=0 
char id=236     x=103  y=129  width=11   height=38   xoffset=-1   yoffset=3    xadvance=12   page=0    chnl=0 
char id=237     x=114  y=129  width=11   height=38   xoffset=-1   yoffset=3    xadvance=12   page=0    chnl=0 
char id=238     x=482  y=50   width=11   height=39   xoffset=-1   yoffset=2    xadvance=12   page=0    chnl=0 
char id=239     x=138  y=50   width=19   height=40   xoffset=-1   yoffset=1    xadvance=19   page=0    chnl=0 
char id=242     x=226  y=90   width=32   height=39   xoffset=-1   yoffset=2    xadvance=35   page=0    chnl=0 
char id=243     x=450  y=50   width=32   height=39   xoffset=-1   yoffset=2    xadvance=35   page=0    chnl=0 
char id=244     x=0    y=90   width=32   height=39   xoffset=-1   yoffset=2    xadvance=35   page=0    chnl=0 
char id=245     x=258  y=90   width=32   height=39   xoffset=-1   yoffset=2    xadvance=35   page=0    chnl=0 
char id=246     x=257  y=0    width=35   height=45   xoffset=-1   yoffset=1    xadvance=36   page=0    chnl=0 
char id=249     x=125  y=129  width=30   height=38   xoffset=-1   yoffset=3    xadvance=33   page=0    chnl=0 
char id=250     x=155  y=129  width=30   height=38   xoffset=-1   yoffset=3    xadvance=33   page=0    chnl=0 
char id=251     x=290  y=90   width=30   height=39   xoffset=-1   yoffset=2    xadvance=33   page=0    chnl=0 
char id=252     x=365  y=0    width=32   height=45   xoffset=-1   yoffset=1    xadvance=33   page=0    chnl=0 
kernings count=314
kerning first=83 second=65 amount=-5
kerning first=120 second=81 amount=-5
kerning first=88 second=79 amount=-5
kerning first=100 second=121 amount=-5
kerning first=87 second=74 amount=-6
kerning first=97 second=118 amount=-9
kerning first=108 second=118 amount=-6
kerning first=118 second=106 amount=-6
kerning first=89 second=97 amount=-9
kerning first=120 second=71 amount=-5
kerning first=113 second=86 amount=-5
kerning first=79 second=230 amount=-6
kerning first=65 second=87 amount=-9
kerning first=100 second=65 amount=-3
kerning first=89 second=74 amount=-6
kerning first=87 second=106 amount=-6
kerning first=98 second=120 amount=-3
kerning first=111 second=121 amount=-5
kerning first=80 second=198 amount=-10
kerning first=121 second=198 amount=-10
kerning first=87 second=67 amount=-3
kerning first=84 second=74 amount=-6
kerning first=102 second=65 amount=-6
kerning first=118 second=67 amount=-3
kerning first=89 second=67 amount=-5
kerning first=88 second=81 amount=-5
kerning first=65 second=71 amount=-3
kerning first=117 second=74 amount=-6
kerning first=98 second=89 amount=-3
kerning first=89 second=79 amount=-5
kerning first=65 second=67 amount=-3
kerning first=87 second=81 amount=-3
kerning first=97 second=121 amount=-9
kerning first=119 second=83 amount=-5
kerning first=97 second=84 amount=-6
kerning first=100 second=198 amount=-5
kerning first=97 second=86 amount=-9
kerning first=97 second=87 amount=-9
kerning first=80 second=88 amount=-3
kerning first=80 second=89 amount=-3
kerning first=121 second=97 amount=-9
kerning first=86 second=79 amount=-3
kerning first=86 second=99 amount=-3
kerning first=118 second=113 amount=-3
kerning first=84 second=106 amount=-6
kerning first=97 second=103 amount=-3
kerning first=112 second=121 amount=-3
kerning first=86 second=71 amount=-3
kerning first=81 second=87 amount=-5
kerning first=87 second=230 amount=-9
kerning first=116 second=198 amount=-8
kerning first=87 second=99 amount=-3
kerning first=86 second=113 amount=-3
kerning first=76 second=119 amount=-6
kerning first=65 second=116 amount=-6
kerning first=81 second=118 amount=-5
kerning first=113 second=119 amount=-5
kerning first=66 second=120 amount=-3
kerning first=80 second=121 amount=-3
kerning first=121 second=67 amount=-5
kerning first=119 second=111 amount=-3
kerning first=65 second=119 amount=-9
kerning first=83 second=198 amount=-6
kerning first=112 second=106 amount=-6
kerning first=119 second=65 amount=-9
kerning first=115 second=230 amount=-6
kerning first=100 second=120 amount=-5
kerning first=88 second=111 amount=-5
kerning first=100 second=118 amount=-3
kerning first=121 second=106 amount=-6
kerning first=118 second=103 amount=-3
kerning first=86 second=65 amount=-9
kerning first=65 second=99 amount=-3
kerning first=86 second=106 amount=-6
kerning first=115 second=106 amount=-6
kerning first=112 second=74 amount=-6
kerning first=119 second=79 amount=-3
kerning first=79 second=119 amount=-3
kerning first=121 second=65 amount=-9
kerning first=118 second=74 amount=-6
kerning first=86 second=97 amount=-9
kerning first=114 second=121 amount=-4
kerning first=118 second=230 amount=-9
kerning first=87 second=103 amount=-3
kerning first=66 second=198 amount=-3
kerning first=119 second=99 amount=-3
kerning first=87 second=97 amount=-9
kerning first=82 second=89 amount=-4
kerning first=121 second=79 amount=-5
kerning first=83 second=97 amount=-5
kerning first=66 second=88 amount=-3
kerning first=85 second=106 amount=-6
kerning first=108 second=119 amount=-6
kerning first=89 second=113 amount=-5
kerning first=68 second=89 amount=-5
kerning first=89 second=198 amount=-10
kerning first=79 second=89 amount=-5
kerning first=65 second=81 amount=-3
kerning first=70 second=65 amount=-6
kerning first=68 second=118 amount=-3
kerning first=97 second=71 amount=-3
kerning first=113 second=89 amount=-8
kerning first=68 second=87 amount=-3
kerning first=97 second=119 amount=-9
kerning first=86 second=103 amount=-3
kerning first=86 second=115 amount=-5
kerning first=65 second=79 amount=-3
kerning first=108 second=86 amount=-6
kerning first=116 second=230 amount=-8
kerning first=76 second=89 amount=-10
kerning first=112 second=198 amount=-10
kerning first=118 second=97 amount=-9
kerning first=79 second=87 amount=-3
kerning first=85 second=230 amount=-5
kerning first=86 second=74 amount=-6
kerning first=65 second=103 amount=-3
kerning first=116 second=106 amount=-6
kerning first=118 second=79 amount=-3
kerning first=65 second=89 amount=-9
kerning first=118 second=83 amount=-5
kerning first=119 second=71 amount=-3
kerning first=100 second=88 amount=-5
kerning first=102 second=230 amount=-12
kerning first=100 second=74 amount=-6
kerning first=120 second=113 amount=-5
kerning first=120 second=99 amount=-5
kerning first=112 second=97 amount=-5
kerning first=66 second=121 amount=-3
kerning first=111 second=118 amount=-3
kerning first=68 second=106 amount=-6
kerning first=87 second=83 amount=-5
kerning first=111 second=88 amount=-5
kerning first=66 second=230 amount=-3
kerning first=88 second=67 amount=-5
kerning first=86 second=111 amount=-3
kerning first=111 second=65 amount=-3
kerning first=76 second=87 amount=-6
kerning first=70 second=106 amount=-6
kerning first=121 second=111 amount=-5
kerning first=88 second=99 amount=-5
kerning first=119 second=67 amount=-3
kerning first=100 second=119 amount=-3
kerning first=98 second=74 amount=-5
kerning first=86 second=198 amount=-9
kerning first=121 second=99 amount=-5
kerning first=84 second=97 amount=-6
kerning first=70 second=230 amount=-12
kerning first=112 second=120 amount=-3
kerning first=89 second=103 amount=-5
kerning first=88 second=71 amount=-5
kerning first=80 second=65 amount=-5
kerning first=121 second=81 amount=-5
kerning first=97 second=67 amount=-3
kerning first=97 second=113 amount=-3
kerning first=83 second=84 amount=-6
kerning first=68 second=230 amount=-5
kerning first=117 second=198 amount=-5
kerning first=111 second=86 amount=-3
kerning first=121 second=74 amount=-6
kerning first=102 second=97 amount=-6
kerning first=100 second=86 amount=-3
kerning first=116 second=65 amount=-6
kerning first=115 second=198 amount=-6
kerning first=81 second=89 amount=-8
kerning first=97 second=79 amount=-3
kerning first=100 second=106 amount=-6
kerning first=65 second=84 amount=-6
kerning first=118 second=111 amount=-3
kerning first=108 second=87 amount=-6
kerning first=87 second=71 amount=-3
kerning first=111 second=106 amount=-6
kerning first=65 second=86 amount=-9
kerning first=86 second=83 amount=-5
kerning first=118 second=65 amount=-9
kerning first=87 second=111 amount=-3
kerning first=68 second=88 amount=-5
kerning first=121 second=230 amount=-10
kerning first=66 second=74 amount=-5
kerning first=108 second=84 amount=-8
kerning first=87 second=198 amount=-9
kerning first=116 second=97 amount=-6
kerning first=68 second=65 amount=-3
kerning first=88 second=113 amount=-5
kerning first=83 second=230 amount=-6
kerning first=89 second=81 amount=-5
kerning first=89 second=83 amount=-6
kerning first=79 second=106 amount=-6
kerning first=76 second=118 amount=-6
kerning first=97 second=89 amount=-9
kerning first=100 second=230 amount=-5
kerning first=118 second=198 amount=-9
kerning first=119 second=74 amount=-6
kerning first=89 second=99 amount=-5
kerning first=83 second=106 amount=-6
kerning first=88 second=103 amount=-5
kerning first=119 second=115 amount=-5
kerning first=79 second=65 amount=-3
kerning first=119 second=113 amount=-3
kerning first=66 second=106 amount=-5
kerning first=117 second=230 amount=-5
kerning first=111 second=119 amount=-3
kerning first=111 second=230 amount=-6
kerning first=98 second=198 amount=-3
kerning first=89 second=65 amount=-9
kerning first=119 second=81 amount=-3
kerning first=79 second=97 amount=-3
kerning first=87 second=79 amount=-3
kerning first=65 second=118 amount=-9
kerning first=80 second=230 amount=-10
kerning first=119 second=106 amount=-6
kerning first=81 second=86 amount=-5
kerning first=80 second=74 amount=-6
kerning first=76 second=121 amount=-10
kerning first=68 second=121 amount=-5
kerning first=115 second=74 amount=-6
kerning first=70 second=198 amount=-12
kerning first=86 second=67 amount=-3
kerning first=89 second=71 amount=-5
kerning first=80 second=106 amount=-6
kerning first=79 second=121 amount=-5
kerning first=83 second=74 amount=-6
kerning first=79 second=118 amount=-3
kerning first=82 second=121 amount=-4
kerning first=68 second=120 amount=-5
kerning first=115 second=84 amount=-6
kerning first=79 second=120 amount=-5
kerning first=113 second=121 amount=-8
kerning first=121 second=71 amount=-5
kerning first=84 second=230 amount=-8
kerning first=70 second=97 amount=-6
kerning first=68 second=97 amount=-3
kerning first=89 second=115 amount=-6
kerning first=111 second=74 amount=-6
kerning first=113 second=87 amount=-5
kerning first=119 second=230 amount=-9
kerning first=84 second=198 amount=-8
kerning first=111 second=97 amount=-3
kerning first=79 second=74 amount=-6
kerning first=65 second=113 amount=-3
kerning first=114 second=89 amount=-4
kerning first=118 second=99 amount=-3
kerning first=80 second=97 amount=-5
kerning first=112 second=230 amount=-10
kerning first=113 second=118 amount=-5
kerning first=68 second=119 amount=-3
kerning first=79 second=88 amount=-5
kerning first=118 second=71 amount=-3
kerning first=120 second=67 amount=-5
kerning first=118 second=115 amount=-5
kerning first=115 second=97 amount=-5
kerning first=102 second=198 amount=-12
kerning first=98 second=106 amount=-5
kerning first=76 second=86 amount=-6
kerning first=97 second=81 amount=-3
kerning first=112 second=89 amount=-3
kerning first=97 second=99 amount=-3
kerning first=98 second=230 amount=-3
kerning first=100 second=89 amount=-5
kerning first=112 second=88 amount=-3
kerning first=100 second=97 amount=-3
kerning first=98 second=88 amount=-3
kerning first=121 second=115 amount=-6
kerning first=85 second=198 amount=-5
kerning first=68 second=74 amount=-6
kerning first=80 second=120 amount=-3
kerning first=121 second=103 amount=-5
kerning first=112 second=65 amount=-5
kerning first=70 second=74 amount=-6
kerning first=117 second=106 amount=-6
kerning first=102 second=106 amount=-6
kerning first=121 second=113 amount=-5
kerning first=120 second=111 amount=-5
kerning first=115 second=65 amount=-5
kerning first=79 second=86 amount=-3
kerning first=86 second=81 amount=-3
kerning first=121 second=83 amount=-6
kerning first=120 second=79 amount=-5
kerning first=108 second=116 amount=-8
kerning first=102 second=74 amount=-6
kerning first=89 second=230 amount=-10
kerning first=111 second=89 amount=-5
kerning first=100 second=87 amount=-3
kerning first=84 second=65 amount=-6
kerning first=118 second=81 amount=-3
kerning first=87 second=113 amount=-3
kerning first=87 second=65 amount=-9
kerning first=79 second=198 amount=-6
kerning first=66 second=89 amount=-3
kerning first=76 second=84 amount=-8
kerning first=89 second=106 amount=-6
kerning first=116 second=74 amount=-6
kerning first=81 second=119 amount=-5
kerning first=111 second=87 amount=-3
kerning first=87 second=115 amount=-5
kerning first=68 second=198 amount=-5
kerning first=119 second=198 amount=-9
kerning first=76 second=116 amount=-8
kerning first=65 second=121 amount=-9
kerning first=98 second=121 amount=-3
kerning first=97 second=111 amount=-3
kerning first=120 second=103 amount=-5
kerning first=85 second=74 amount=-6
kerning first=65 second=111 amount=-3
kerning first=81 second=121 amount=-8
kerning first=119 second=97 amount=-9
kerning first=86 second=230 amount=-9
kerning first=68 second=86 amount=-3
kerning first=97 second=116 amount=-6
kerning first=108 second=89 amount=-10
kerning first=108 second=121 amount=-10
kerning first=111 second=120 amount=-5
kerning first=111 second=198 amount=-6
kerning first=119 second=103 amount=-3
kerning first=89 second=111 amount=-5
